{

    "views.signin.username"                 : "Usuario",
    "views.signin.password"                 : "Contraseña",
    "views.signin.continue"                 : "Continuar",
    "views.signin.recover_password"         : "Recuperar Contraseña",
    "views.signin.modal.message"            : "Ingresa tu correo electronico para restablecer tu contraseña",
    "views.signin.modal.confirm?"           : "¿Estas seguro de restablecer tu contraseña",
    "views.signin.cancel"                   : "Cancelar",
    "views.signin.enter_email"              : "Ingresa correo electronico",
    "views.signin.success_email"            : "Constraseña enviada exitosamente a tu correo electrónico",
    "views.signin.error_login"              : "Error al iniciar sesión",
    "views.signin.unlock"                   : "Desbloquear",

    "views.users.name" 						: "Contraseña",
    "views.users.josbsite"					: "Obras",
    "views.users.add_user"					: "Crear usuario",
    "views.users.user"    					: "Usuario",
    "views.users.status"                    : "Estatus",
    "views.users.no_jobsite"                : "Obras no asignadas",
    "views.users.all_access"                : "Acceso total",
    "views.users.no_apps"                   : "Apps no asignadas",
    "views.users.all_apps"                  : "Todas las apps",
    "views.users.enabled"                   : "Usuario habilitado",
    "views.users.disabled"                  : "Usuario deshabilitado",
    "views.users.super_admin"               : "Super Usuario",
    "views.users.is_not_super"              : "Usuario",
    "views.users.edit_access"               : "Editar",
    "views.users.all_users"                 : "Todos los usuarios",
    "views.users.active"                    : "Activo",
    "views.users.inactive"                  : "Inactivo",
    "views.users.search_users"              : "Buscar plantas",

    "views.navigation.users"                : "Usuarios",
    "views.navigation.history"              : "Historial",
    "views.navigation.sign_out"             : "Cerrar sesión",
    "views.navigation.user_admin"           : "User management",
    "views.navigation.monitor_request"      : "Monitor Request",
    "views.navigation.monitor_manager"      : "Monitor Manager",

    "views.newuser.email"                   : "Correo Electrónico",
    "views.newuser.name"                    : "Nombre",
    "views.newuser.password"                : "Contraseña",
    "views.newuser.phone"                   : "Teléfono",
    "views.newuser.is_super_admin"          : "Es super usuario?",
    "views.newuser.role"                    : "Rol",
    "views.newuser.search"                  : "Buscar",
    "views.newuser.user_information"        : "Informacion de Usuario",
    "views.newuser.access"                  : "Acceso",
    "views.newuser.access_apps"             : "Acceso a las apps",
    "views.newuser.access_jobsites"         : "Acceso a las obras",
    "views.newuser.applications"            : "Aplicaciones",
    "views.newuser.create_user"             : "Guardar",
    "views.newuser.cancel"                  : "Cancelar",
    "views.newuser.apps"                    : "Apps",
    "views.newuser.add"                     : "Crear",
    "views.newuser.appModal.addApps"        : "Agregar aplicaciones",
    "views.newuser.appModal.save"           : "Guardar",
    "views.newuser.all_jobsites"            : "Todas las obras",
    "views.newuser.to_filter"               : "para filtrar",
    "views.newuser.by_jobsite"              : "Por obra",
    "views.newuser.by_state"                : "Por estado",
    "views.newuser.add_state"               : "Crear nuevo",
    "views.newuser.select_plants"           : "Seleciona plantas",
    "views.newuser.all_plants"              : "Ninguna planta",
    "views.newuser.all_plants_modal"        : "Todas las plantas",
    "views.newuser.confirm"                 : "Confirmar",
    "views.newuser.all_access"              : "Todos los accesos",
    "views.newuser.edit_only"               : "Permisos para modificar",
    "views.newuser.view_only"               : "Solo consulta",
    "views.newuser.user_created"            : "Usuario creado exitosamente",
    "views.newuser.disable_user"            : "Deshabilitar usuario?",
    "views.newuser.view_user"               : "Consultar usuario",
    "views.newuser.edit_user"               : "Editar usuario",
    "views.newuser.confirm_delete"          : "Estados y los obras asignadas van a ser reseteados, confirmar esta decisión",
    "app.name"                              : "DISPATCHER",

    "views.monitor_request.request"         : "Solicitud",
    "views.monitor_request.elapsed_time"    : "Tiempo transcurrido",
    "views.monitor_request.order"           : "Orden",
    "views.monitor_request.company"         : "Compañía / Obra",
    "views.monitor_request.plant"           : "Planta",
    "views.monitor_request.customer_info"   : "Informacion del cliente",
    "views.monitor_request.order_progress"  : "Progreso de la orden",
    "views.monitor_request.reply"           : "Respuesta",
    "views.monitor_request.monitor_request" : "Monitor request",
    "views.monitor_request.all_plants"      : "Todas las plantas",
    "views.monitor_request.all_requests"    : "Todas las solicitudes",
    "views.monitor_request.approve"         : "Aprobar",
    "views.monitor_request.reject"          : "Rechazar",
    "views.monitor_request.call_made"       : "Llamada realizada",
    "views.monitor_request.dismiss"         : "Descartado",
    "views.monitor_request.call"            : "Llamada",
    "views.monitor_request.hold"            : "En espera",
    "views.monitor_request.decrease"        : "Decrementar",
    "views.monitor_request.increase"        : "Incrementar",
    "views.monitor_request.resume"          : "Reiniciar",
    "views.monitor_request.of"              : " de ",
    "views.monitor_request.to"              : " a ",
    "views.monitor_request.add_comments"    : "Agregar comentarios",
    "views.monitor_request.send"            : "Enviar",
    "views.monitor_request.hour"            : "Hora",
    "views.monitor_request.response_time"   : "Tiempo de respuesta",
    "views.monitor_request.attended_by"     : "Atendido por",
    "views.monitor_request.approved"        : "Aprobado",
    "views.monitor_request.rejected"        : "Rechazado",
    "views.monitor_request.dismissed"       : "Descartado",
    "views.monitor_request.pending_request" : "Solicitud pendiente",
    "views.monitor_request.tracking"        : "Seguimiento",
    "views.monitor_request.elapsed"         : "Tiempo transcurrido",
    "views.monitor_request.monitor_manager" : "Monitor Manager",
    "views.monitor_request.tracking_plant"  : "Seguimiento de plantas",
    "views.monitor_request.change_plants"   : "Cambiar plantas",
    "views.monitor_request.load_more"       : "Cargar mas",
    "views.monitor_request.loading_plants"  : "Cargando plantas ... ",
    "views.monitor_request.noti_title1"     : "Solicitudes nuevas disponibles",
    "views.monitor_request.noti_title2"     : "Llegaron solicitudes nuevas",
    "views.monitor_request.no_data"         : "Sin información",
	"views.monitor_request.noti_open"       : "Tienes solicitudes pendientes, favor de atenderlas a la brevedad.",
    "views.monitor_request.noti_new"        : "Ha llegado una nueva  solicitud, clic aqui para atender",
    "lang"                                  : "es",
    "welcome_msg"                           : "¡Bienvenido!, por favor ingrese",
    "views.monitor_request.no_plants"       : "Sin plantas",
    "views.monitor_request.selected_plants" : " plantas seleccionadas",
    "app.lang.confirm"                      : "Se recargara la app para realizar la traducción, ¿Desea proceder?"


}